id,name,model_id:id,group_id:id,perm_read,perm_write,perm_create,perm_unlink
access_hr_appraisal_manager,hr_appraisal.manager,model_hr_appraisal,base.group_hr_manager,1,1,1,0
access_hr_appraisal_officer,hr_appraisal.officer,model_hr_appraisal,base.group_hr_user,1,1,1,0
access_hr_appraisal_employee,hr_appraisal.employee,model_hr_appraisal,base.group_user,1,1,1,0
